\relax 
\@writefile{toc}{\contentsline {section}{\numberline {1}Overview}{3}}
\@writefile{toc}{\contentsline {section}{\numberline {2}Runtime}{3}}
\@writefile{toc}{\contentsline {section}{\numberline {3}Design}{4}}
\@writefile{toc}{\contentsline {subsection}{\numberline {3.1}E-R Model}{4}}
\@writefile{lof}{\contentsline {figure}{\numberline {1}{\ignorespaces The E-R model. Note that due to limitations of the drawing package used, a bold line is used to indicate total participation.}}{4}}
\newlabel{fig:model}{{1}{4}}
\@writefile{toc}{\contentsline {subsection}{\numberline {3.2}Relational Model}{5}}
\@writefile{lof}{\contentsline {figure}{\numberline {2}{\ignorespaces The Relational model.}}{5}}
\newlabel{fig:relational}{{2}{5}}
\@writefile{toc}{\contentsline {section}{\numberline {4}SQL Schema}{6}}
\newlabel{sec:sql}{{4}{6}}
\@writefile{lol}{\contentsline {lstlisting}{../data/setup.sql}{6}}
\@writefile{lol}{\contentsline {lstlisting}{../data/setup.sql}{6}}
\@writefile{lol}{\contentsline {lstlisting}{../data/setup.sql}{6}}
\@writefile{lol}{\contentsline {lstlisting}{../data/setup.sql}{7}}
\@writefile{lol}{\contentsline {lstlisting}{../data/setup.sql}{7}}
\@writefile{lol}{\contentsline {lstlisting}{../data/setup.sql}{7}}
\@writefile{lol}{\contentsline {lstlisting}{../data/setup.sql}{7}}
\@writefile{lol}{\contentsline {lstlisting}{../data/setup.sql}{7}}
\@writefile{lol}{\contentsline {lstlisting}{../data/setup.sql}{7}}
\@writefile{lol}{\contentsline {lstlisting}{../data/setup.sql}{8}}
\@writefile{lol}{\contentsline {lstlisting}{../data/setup.sql}{8}}
\@writefile{lol}{\contentsline {lstlisting}{../data/setup.sql}{8}}
\@writefile{toc}{\contentsline {subsection}{\numberline {4.1}Procedures}{8}}
\@writefile{toc}{\contentsline {subsection}{\numberline {4.2}Triggers}{9}}
\@writefile{toc}{\contentsline {subsection}{\numberline {4.3}Queries \& Views}{9}}
\@writefile{toc}{\contentsline {section}{\numberline {5}Conclusion}{9}}
\@writefile{toc}{\contentsline {section}{\numberline {6}Appendix}{9}}
\@writefile{toc}{\contentsline {subsection}{\numberline {6.1}Database Tables, Queries \& Data}{9}}
\newlabel{sec:data}{{6.1}{9}}
\@writefile{toc}{\contentsline {subsubsection}{\numberline {6.1.1}Tables}{9}}
\@writefile{lof}{\contentsline {figure}{\numberline {3}{\ignorespaces The courier table}}{9}}
\@writefile{lof}{\contentsline {figure}{\numberline {4}{\ignorespaces The restaurant table}}{10}}
\@writefile{lof}{\contentsline {figure}{\numberline {5}{\ignorespaces The restaurant\_type table}}{10}}
\@writefile{lof}{\contentsline {figure}{\numberline {6}{\ignorespaces The customer table}}{10}}
\@writefile{lof}{\contentsline {figure}{\numberline {7}{\ignorespaces The customer\_phones table}}{10}}
\@writefile{lof}{\contentsline {figure}{\numberline {8}{\ignorespaces The preference table}}{11}}
\@writefile{lof}{\contentsline {figure}{\numberline {9}{\ignorespaces The orders table}}{11}}
\@writefile{lof}{\contentsline {figure}{\numberline {10}{\ignorespaces The item table}}{11}}
\@writefile{lof}{\contentsline {figure}{\numberline {11}{\ignorespaces The dish table}}{11}}
\@writefile{lof}{\contentsline {figure}{\numberline {12}{\ignorespaces The dish\_ingredients table}}{12}}
\@writefile{lof}{\contentsline {figure}{\numberline {13}{\ignorespaces The drink table}}{12}}
\@writefile{lof}{\contentsline {figure}{\numberline {14}{\ignorespaces The order\_items table}}{12}}
\@writefile{toc}{\contentsline {subsubsection}{\numberline {6.1.2}Queries}{13}}
\@writefile{lof}{\contentsline {figure}{\numberline {15}{\ignorespaces The view for Q1, the dishes never ordered}}{13}}
\@writefile{lof}{\contentsline {figure}{\numberline {16}{\ignorespaces The view for Q2, the average delivery time}}{13}}
\@writefile{lof}{\contentsline {figure}{\numberline {17}{\ignorespaces The view for Q3, the five most popular drinks}}{13}}
\@writefile{lof}{\contentsline {figure}{\numberline {18}{\ignorespaces The view for Q4, the most popular restaurants with their most popular dish. Included is an example of a restaurant with no dishes ordered}}{14}}
\@writefile{lof}{\contentsline {figure}{\numberline {19}{\ignorespaces The view for Q5, the fastest couriers for each city}}{14}}
\@writefile{lof}{\contentsline {figure}{\numberline {20}{\ignorespaces The view for orders not yet delivered}}{14}}
\@writefile{lof}{\contentsline {figure}{\numberline {21}{\ignorespaces The view for completed orders}}{14}}
\@writefile{toc}{\contentsline {subsection}{\numberline {6.2}Database Setup Code}{14}}
\newlabel{sec:sqldump}{{6.2}{14}}
\@writefile{lol}{\contentsline {lstlisting}{../data/setup.sql}{14}}
\newlabel{LastPage}{{}{22}}
\xdef\lastpage@lastpage{22}
\gdef\lastpage@lastpageHy{}
